CRITICAL - 2022-09-12 16:47:57 --> count(): Parameter must be an array or an object that implements Countable
in APPPATH\Controllers\Admin\Perkuliahan\KelasPerkuliahan.php on line 50.
 1 [internal function]: CodeIgniter\Debug\Exceptions->errorHandler(2, 'count(): Parameter must be an array or an object that implements Countable', 'APPPATH\\Controllers\\Admin\\Perkuliahan\\KelasPerkuliahan.php', 50, [...])
 2 APPPATH\Controllers\Admin\Perkuliahan\KelasPerkuliahan.php(50): count('1')
 3 SYSTEMPATH\CodeIgniter.php(904): App\Controllers\Admin\Perkuliahan\KelasPerkuliahan->index()
 4 SYSTEMPATH\CodeIgniter.php(457): CodeIgniter\CodeIgniter->runController(Object(App\Controllers\Admin\Perkuliahan\KelasPerkuliahan))
 5 SYSTEMPATH\CodeIgniter.php(340): CodeIgniter\CodeIgniter->handleRequest(null, Object(Config\Cache), false)
 6 FCPATH\index.php(67): CodeIgniter\CodeIgniter->run()
 7 SYSTEMPATH\Commands\Server\rewrite.php(43): require_once('FCPATH\\index.php')
CRITICAL - 2022-09-12 17:54:34 --> preg_match_all(): Unknown modifier '/'
in APPPATH\Controllers\Admin\Perkuliahan\KelasPerkuliahan.php on line 50.
 1 [internal function]: CodeIgniter\Debug\Exceptions->errorHandler(2, 'preg_match_all(): Unknown modifier \'/\'', 'APPPATH\\Controllers\\Admin\\Perkuliahan\\KelasPerkuliahan.php', 50, [...])
 2 APPPATH\Controllers\Admin\Perkuliahan\KelasPerkuliahan.php(50): preg_match_all('(.*?)/m', '180IE004/01/22/2/01', null)
 3 SYSTEMPATH\CodeIgniter.php(904): App\Controllers\Admin\Perkuliahan\KelasPerkuliahan->index()
 4 SYSTEMPATH\CodeIgniter.php(457): CodeIgniter\CodeIgniter->runController(Object(App\Controllers\Admin\Perkuliahan\KelasPerkuliahan))
 5 SYSTEMPATH\CodeIgniter.php(340): CodeIgniter\CodeIgniter->handleRequest(null, Object(Config\Cache), false)
 6 FCPATH\index.php(67): CodeIgniter\CodeIgniter->run()
 7 SYSTEMPATH\Commands\Server\rewrite.php(43): require_once('FCPATH\\index.php')
CRITICAL - 2022-09-12 17:54:50 --> Use of undefined constant m - assumed 'm' (this will throw an Error in a future version of PHP)
in APPPATH\Controllers\Admin\Perkuliahan\KelasPerkuliahan.php on line 50.
 1 APPPATH\Controllers\Admin\Perkuliahan\KelasPerkuliahan.php(50): CodeIgniter\Debug\Exceptions->errorHandler(2, 'Use of undefined constant m - assumed \'m\' (this will throw an Error in a future version of PHP)', 'APPPATH\\Controllers\\Admin\\Perkuliahan\\KelasPerkuliahan.php', 50, [...])
 2 SYSTEMPATH\CodeIgniter.php(904): App\Controllers\Admin\Perkuliahan\KelasPerkuliahan->index()
 3 SYSTEMPATH\CodeIgniter.php(457): CodeIgniter\CodeIgniter->runController(Object(App\Controllers\Admin\Perkuliahan\KelasPerkuliahan))
 4 SYSTEMPATH\CodeIgniter.php(340): CodeIgniter\CodeIgniter->handleRequest(null, Object(Config\Cache), false)
 5 FCPATH\index.php(67): CodeIgniter\CodeIgniter->run()
 6 SYSTEMPATH\Commands\Server\rewrite.php(43): require_once('FCPATH\\index.php')
CRITICAL - 2022-09-12 18:00:22 --> Undefined variable: arrays
in APPPATH\Controllers\Admin\Perkuliahan\KelasPerkuliahan.php on line 47.
 1 APPPATH\Controllers\Admin\Perkuliahan\KelasPerkuliahan.php(47): CodeIgniter\Debug\Exceptions->errorHandler(8, 'Undefined variable: arrays', 'APPPATH\\Controllers\\Admin\\Perkuliahan\\KelasPerkuliahan.php', 47, [...])
 2 SYSTEMPATH\CodeIgniter.php(904): App\Controllers\Admin\Perkuliahan\KelasPerkuliahan->index()
 3 SYSTEMPATH\CodeIgniter.php(457): CodeIgniter\CodeIgniter->runController(Object(App\Controllers\Admin\Perkuliahan\KelasPerkuliahan))
 4 SYSTEMPATH\CodeIgniter.php(340): CodeIgniter\CodeIgniter->handleRequest(null, Object(Config\Cache), false)
 5 FCPATH\index.php(67): CodeIgniter\CodeIgniter->run()
 6 SYSTEMPATH\Commands\Server\rewrite.php(43): require_once('FCPATH\\index.php')
CRITICAL - 2022-09-12 18:06:20 --> Array to string conversion
in APPPATH\Controllers\Admin\Perkuliahan\KelasPerkuliahan.php on line 65.
 1 [internal function]: CodeIgniter\Debug\Exceptions->errorHandler(8, 'Array to string conversion', 'APPPATH\\Controllers\\Admin\\Perkuliahan\\KelasPerkuliahan.php', 65, [...])
 2 APPPATH\Controllers\Admin\Perkuliahan\KelasPerkuliahan.php(65): array_unique([...])
 3 SYSTEMPATH\CodeIgniter.php(904): App\Controllers\Admin\Perkuliahan\KelasPerkuliahan->index()
 4 SYSTEMPATH\CodeIgniter.php(457): CodeIgniter\CodeIgniter->runController(Object(App\Controllers\Admin\Perkuliahan\KelasPerkuliahan))
 5 SYSTEMPATH\CodeIgniter.php(340): CodeIgniter\CodeIgniter->handleRequest(null, Object(Config\Cache), false)
 6 FCPATH\index.php(67): CodeIgniter\CodeIgniter->run()
 7 SYSTEMPATH\Commands\Server\rewrite.php(43): require_once('FCPATH\\index.php')
CRITICAL - 2022-09-12 18:06:40 --> Array to string conversion
in APPPATH\Controllers\Admin\Perkuliahan\KelasPerkuliahan.php on line 58.
 1 [internal function]: CodeIgniter\Debug\Exceptions->errorHandler(8, 'Array to string conversion', 'APPPATH\\Controllers\\Admin\\Perkuliahan\\KelasPerkuliahan.php', 58, [...])
 2 APPPATH\Controllers\Admin\Perkuliahan\KelasPerkuliahan.php(58): array_unique([...])
 3 SYSTEMPATH\CodeIgniter.php(904): App\Controllers\Admin\Perkuliahan\KelasPerkuliahan->index()
 4 SYSTEMPATH\CodeIgniter.php(457): CodeIgniter\CodeIgniter->runController(Object(App\Controllers\Admin\Perkuliahan\KelasPerkuliahan))
 5 SYSTEMPATH\CodeIgniter.php(340): CodeIgniter\CodeIgniter->handleRequest(null, Object(Config\Cache), false)
 6 FCPATH\index.php(67): CodeIgniter\CodeIgniter->run()
 7 SYSTEMPATH\Commands\Server\rewrite.php(43): require_once('FCPATH\\index.php')
ERROR - 2022-09-12 18:26:22 --> Error connecting to the database: mysqli_sql_exception: MySQL server has gone away in E:\project\new_siakad\system\Database\MySQLi\Connection.php:171
Stack trace:
#0 E:\project\new_siakad\system\Database\MySQLi\Connection.php(171): mysqli->real_connect('192.168.176.239', 'siakad_offline', 'TtsEsaHZkHbFJrB...', 'siakad_offline', 3306, '', 0)
#1 E:\project\new_siakad\system\Database\BaseConnection.php(382): CodeIgniter\Database\MySQLi\Connection->connect(false)
#2 E:\project\new_siakad\system\Database\BaseConnection.php(588): CodeIgniter\Database\BaseConnection->initialize()
#3 E:\project\new_siakad\system\Database\BaseBuilder.php(1585): CodeIgniter\Database\BaseConnection->query('SELECT `tum`.`i...', Array, false)
#4 E:\project\new_siakad\app\Controllers\Admin\Perkuliahan\KelasPerkuliahan.php(51): CodeIgniter\Database\BaseBuilder->get()
#5 E:\project\new_siakad\system\CodeIgniter.php(904): App\Controllers\Admin\Perkuliahan\KelasPerkuliahan->index()
#6 E:\project\new_siakad\system\CodeIgniter.php(457): CodeIgniter\CodeIgniter->runController(Object(App\Controllers\Admin\Perkuliahan\KelasPerkuliahan))
#7 E:\project\new_siakad\system\CodeIgniter.php(340): CodeIgniter\CodeIgniter->handleRequest(NULL, Object(Config\Cache), false)
#8 E:\project\new_siakad\public\index.php(67): CodeIgniter\CodeIgniter->run()
#9 E:\project\new_siakad\system\Commands\Server\rewrite.php(43): require_once('E:\\project\\new_...')
#10 {main}

Next CodeIgniter\Database\Exceptions\DatabaseException: MySQL server has gone away in E:\project\new_siakad\system\Database\MySQLi\Connection.php:215
Stack trace:
#0 E:\project\new_siakad\system\Database\BaseConnection.php(382): CodeIgniter\Database\MySQLi\Connection->connect(false)
#1 E:\project\new_siakad\system\Database\BaseConnection.php(588): CodeIgniter\Database\BaseConnection->initialize()
#2 E:\project\new_siakad\system\Database\BaseBuilder.php(1585): CodeIgniter\Database\BaseConnection->query('SELECT `tum`.`i...', Array, false)
#3 E:\project\new_siakad\app\Controllers\Admin\Perkuliahan\KelasPerkuliahan.php(51): CodeIgniter\Database\BaseBuilder->get()
#4 E:\project\new_siakad\system\CodeIgniter.php(904): App\Controllers\Admin\Perkuliahan\KelasPerkuliahan->index()
#5 E:\project\new_siakad\system\CodeIgniter.php(457): CodeIgniter\CodeIgniter->runController(Object(App\Controllers\Admin\Perkuliahan\KelasPerkuliahan))
#6 E:\project\new_siakad\system\CodeIgniter.php(340): CodeIgniter\CodeIgniter->handleRequest(NULL, Object(Config\Cache), false)
#7 E:\project\new_siakad\public\index.php(67): CodeIgniter\CodeIgniter->run()
#8 E:\project\new_siakad\system\Commands\Server\rewrite.php(43): require_once('E:\\project\\new_...')
#9 {main}
CRITICAL - 2022-09-12 18:26:22 --> Unable to connect to the database.
Main connection [MySQLi]: MySQL server has gone away
in SYSTEMPATH\Database\BaseConnection.php on line 418.
 1 SYSTEMPATH\Database\BaseConnection.php(588): CodeIgniter\Database\BaseConnection->initialize()
 2 SYSTEMPATH\Database\BaseBuilder.php(1585): CodeIgniter\Database\BaseConnection->query('SELECT `tum`.`id_uniting`, `tkd`.`id_mk`, `tkd`.`id_kurikulum`, case
         when tum.id_uniting like concat(\'%\', `tum`.`kode_mk`, \'%\') then \'false\'
         else \'true\'
      end as is_join
FROM `tbl_uniting_matakuliah` `tum`
JOIN `tbl_kurikulum_detail` `tkd` ON `tkd`.`kode_mk` = `tum`.`kode_mk`
WHERE `tum`.`id_uniting` IN :tum.id_uniting:', [...], false)
 3 APPPATH\Controllers\Admin\Perkuliahan\KelasPerkuliahan.php(51): CodeIgniter\Database\BaseBuilder->get()
 4 SYSTEMPATH\CodeIgniter.php(904): App\Controllers\Admin\Perkuliahan\KelasPerkuliahan->index()
 5 SYSTEMPATH\CodeIgniter.php(457): CodeIgniter\CodeIgniter->runController(Object(App\Controllers\Admin\Perkuliahan\KelasPerkuliahan))
 6 SYSTEMPATH\CodeIgniter.php(340): CodeIgniter\CodeIgniter->handleRequest(null, Object(Config\Cache), false)
 7 FCPATH\index.php(67): CodeIgniter\CodeIgniter->run()
 8 SYSTEMPATH\Commands\Server\rewrite.php(43): require_once('FCPATH\\index.php')
